[
    {
        "Activity type": "Cinema",
        "Duration": "00:00",
        "From": "2023-01-25 19:44",
        "To": "2023-01-25 19:44",
        "Comment": ""
    },
    {
        "Activity type": "Read",
        "Duration": "00:33",
        "From": "2023-01-25 19:10",
        "To": "2023-01-25 19:44",
        "Comment": ""
    },
    {
        "Activity type": "Work",
        "Duration": "00:00",
        "From": "2023-01-25 19:10",
        "To": "2023-01-25 19:10",
        "Comment": ""
    },
    {
        "Activity type": "Sleep",
        "Duration": "00:00",
        "From": "2023-01-25 17:40",
        "To": "2023-01-25 17:40",
        "Comment": "No"
    },
    {
        "Activity type": "Work",
        "Duration": "00:00",
        "From": "2023-01-25 17:39",
        "To": "2023-01-25 17:40",
        "Comment": "Proj"
    },
    {
        "Activity type": "Work",
        "Duration": "00:00",
        "From": "2023-01-25 12:32",
        "To": "2023-01-25 12:32",
        "Comment": "Hfh"
    }
]